[    
    {"id":"2001","coffeename":"Apple Pie","detail":"Apple juice, fresh apple, non-fat frozen yogurt, cinnamon","S":"50","M":"60","L":"75"},
    {"id":"2002","coffeename":"Orange Plus","detail":"Fresh orange juice, apple juice, peaches, blueberries, non-fat frozen yogurt","S":"50","M":"60","L":"75"},
    {"id":"2003","coffeename":"Blue Pineapple","detail":"Pineapple juice, blueberries, banana, pineapple sherbet","S":"50","M":"60","L":"75"},
    {"id":"2004","coffeename":"Peaches & Cream","detail":"Peach juice, peaches, ice milk, orange sherbet","S":"50","M":"60","L":"80"}
]
