[    
    {"id":"4001","coffeename":"CHILDREN’S HIGH TEA","detail":"A child friendly selection of finger sandwiches, sweets, savoury item, sconewith strawberry and raspberry jam and clotted cream, choice of tea, hot chocolate, juice or soft drink","S":"50","M":"60","L":"75"},
    {"id":"4002","coffeename":"TRADITIONAL HIGH TEA","detail":"A set selection of finger sandwiches, petit fours, sweet and savoury pastries, scone with preserve and clotted cream, tea or coffee Tea Selection included. Tea for Connoisseurs additional $2","S":"50","M":"60","L":"75"},
    {"id":"4003","coffeename":"SPARKLING HIGH TEA","detail":"A set selection of finger sandwiches, petit fours, sweet and savoury pastries, scones wit preserve and clotted cream, tea or coffee and a glass of Australian sparkling wine ","S":"50","M":"60","L":"75"},
    {"id":"4004","coffeename":"COCKTAIL HIGH TEA","detail":"A set selection of finger sandwiches, petit fours, sweet and savoury pastries, scone with preserve and clotted cream, tea or coffee and served with a cocktail","S":"50","M":"60","L":"80"}
]
